…
How many stimuli are there per item?
((should be = 2))
```{r}
stimuli %>% 
  group_by(item) %>% 
  count()
```

.# A tibble: 88 × 2
.# Groups:   item [88]
    item     n
   <dbl> <int>
 1     1    16
 2     2    16
 3     3    16
 4     4    16
 5     5    16
 6     6    16
 7     7    16
 8     8    16
 9     9    16
10    10    16
.# … with 78 more rows
.# ℹ Use `print(n = ...)` to see more rows
…
